{
  "accept": "Đồng ý",
  "accountInfo": "Thông tin tài khoản",
  "addNew": "Thêm mới",
  "address": "Địa chỉ",
  "airlines": "Hãng bay",
  "all": "Tất cả",
  "announce": "Thông báo",
  "apply": "Áp dụng",
  "approver": "Trạng thái thanh toán",
  "attention": "Chú ý",
  "back": "Quay lại",
  "backToHome": "Quay về trang chủ",
  "backToOrder": "Quản lý đơn hàng",
  "bank": "Ngân hàng",
  "birthday": "Ngày sinh",
  "birthdayValid": "Ngày sinh không hợp lệ",
  "bookingDate": "Ngày đặt từ",
  "cancel": "Hủy",
  "change": "Thay đổi",
  "chosenDate": "Chọn ngày",
  "close": "Đóng",
  "companySize": "Quy mô",
  "confirm": "Xác nhận",
  "continue": "Tiếp tục",
  "copy": "Sao chép",
  "currency": "đ",
  "dateRange": "Khoảng ngày đặt",
  "detail": "Xem chi tiết",
  "done": "Hoàn thành",
  "email": "Email",
  "emailEx": "Ví dụ: email@gmail.com",
  "emailInvalid": "Email không đúng định dạng",
  "enterAddress": "Nhập địa chỉ",
  "enterAgencyCode": "Nhập mã đại lý",
  "enterEmail": "Nhập email",
  "enterPassword": "******",
  "enterPhoneNumber": "Nhập số điện thoại",
  "female": "Nữ",
  "forgotPassword": "Quên mật khẩu",
  "forgotPasswordNote": "Bạn quên mật khẩu?",
  "from": "từ",
  "fromDate": "Từ ngày",
  "fullName": "Họ và tên",
  "fullNameEx": "Ví dụ: Nguyen Van A",
  "fullNameValid": "Họ và tên phải có ít nhất 2 từ",
  "gender": "Giới tính",
  "hello": "Xin chào",
  "home": "Trang chủ",
  "flight.inbound": "Chiều về",
  "labelRowPerPage": "Số hàng trên mỗi trang:",
  "linkValid": "Đường dẫn không chính xác!",
  "login": "Đăng nhập",
  "signUp": "Đăng ký",
  "logout": "Đăng xuất",
  "favoriteHotel": "Khách sạn yêu thích",
  "male": "Nam",
  "month": "Tháng {num}",
  "name": "Tên",
  "newPassword": "Mật khẩu mới",
  "noData": "Không có dữ liệu",
  "noOption": "Không có kết quả phù hợp",
  "none": "Không có",
  "notChosen": "Chưa chọn",
  "notFound": "Không tìm thấy",
  "ok": "OK",

  "point": "điểm",
  "passportExpiredDateValid": "Ngày hết hạn không hợp lệ",
  "password": "Mật khẩu",
  "passwordSetting": "Thiết lập mật khẩu",
  "paymentStatus": "Trạng thái thanh toán",
  "phoneNumber": "Số điện thoại",
  "phoneNumberEx": "Ví dụ: 090123456",
  "phoneNumberValid": "Số điện thoại không hợp lệ",
  "recharge": "Nạp tiền",
  "register": "Đăng ký tài khoản",
  "reject": "Bỏ qua",
  "required": "Thông tin bắt buộc",
  "reset": "Làm mới",
  "retry": "Thử lại",
  "rowPerPage": "Số dòng:",
  "save": "Lưu lại",
  "search": "Tìm kiếm",
  "seeAll": "Xem tất cả",
  "seeMore": "Xem thêm",
  "selectDateRange": "Chọn khoảng ngày",
  "serverProblem": "Máy chủ gặp vấn đề. Xin vui lòng thử lại.",
  "setting": "Cài đặt",
  "shareLink": "Chia sẻ link",
  "status": "Trạng thái",
  "street": "Phường/ Xã/ Thị trấn",
  "stt": "STT",
  "ticketClasses": "Hạng vé",
  "to": "đến",
  "toDate": "Đến ngày",
  "total": "Tổng cộng",
  "tripiCredit": "Tripi credit",
  "unRequired": "Không bắt buộc",
  "userName": "Tên đăng nhập",
  "unstableNetwork": "Kết nối mạng không ổn định.",
  "webPortal": "Admin Portal",
  "yes": "Có",

  "adult": "Người lớn",
  "children": "Trẻ em",
  "infant": "Trẻ nhỏ",
  "baby": "Em bé",
  "student": "Sinh viên",

  "Inactive": "Inactive",
  "Active": "Active",

  "childrenAgesTitle": "Độ tuổi của trẻ em",
  "selectAge": "Chọn tuổi",
  "underOneYearOld": "Dưới 1 tuổi",
  "childrenAge": "{number} tuổi",

  "medium": "Trung bình",
  "satisfied": "Hài lòng",
  "good": "Tốt",
  "veryGood": "Rất tốt",
  "great": "Tuyệt vời",

  "payment.fail": "Thất bại",
  "payment.success": "Thành công",
  "payment.cancelByProvider": "Đã hủy",
  "payment.pending": "Chưa thanh toán",
  "payment.awaitingPayment": "Chờ thanh toán",
  "payment.completed": "Thành công",
  "payment.refundedPosted": "Hoàn tiền",
  "payment.refunded": "Hoàn tiền",
  "payment.disputed": "Có sự cố",
  "payment.waiting": "Chờ thanh toán",
  "payment.processing": "Đang xử lý",
  "payment.holding": "Đang giữ",
  "payment.cancellingHolding": "Đang chờ hủy",
  "payment.successPayment": "Thành công",
  "payment.waitingPayment": "Chờ thanh toán",
  "payment.invoice.open": " Chờ xử lý ",
  "payment.invoice.handling": "Đang xử lý ",
  "payment.invoice.completed": "Đã xử lý",

  "auth.accountInfo": "Thông tin tài khoản",
  "auth.agreeWith": "Tôi đồng ý với",
  "auth.changePassword": "Đổi mật khẩu",
  "auth.changePasswordNote": "Bạn vui lòng nhập mã xác thực đã gửi qua số điện thoại đăng ký",
  "auth.changePasswordSuccess": "Mật khẩu đã được đổi thành công",
  "auth.confirmPassword": "Nhập lại mật khẩu",
  "auth.currentPassword": "Mật khẩu hiện tại",
  "auth.enterName": "Nhập họ tên",
  "auth.enterVerifyCode": "Nhập mã xác thực",
  "auth.forgotPassword": "Lấy lại mật khẩu",
  "auth.forgotPasswordNote": "Bạn cần nhập đầy đủ các thông tin sau để nhận mã xác thực",
  "auth.forgotPasswordNote2": "Link xác nhận đã được gửi đến email của bạn. Hãy kiểm tra email và tiếp tục quá trình",
  "auth.name": "Họ tên",
  "auth.newPassword": "Mật khẩu mới",
  "auth.passwordConfirmNotMatch": "Mật khẩu không khớp",
  "auth.passwordLengthValidate": "Mật khẩu phải từ 6-50 ký tự",
  "auth.reSendCode": "Gửi lại mã",
  "auth.rules": "Điều khoản của Tripi One",

  "checkout.payFailure": "Thanh toán thất bại",
  "checkout.paySuccess": "Thanh toán thành công",
  "checkout.success": "Thanh toán thành công",

  "flight.whereAreYou": "Bạn đang ở đâu?",
  "flight.pleaseProvideYourLocation": "Cung cấp địa điểm để chúng tôi có thể đưa ra những kết quả phù hợp và rẻ nhất cho bạn!",
  "flight.selectNationalityCountry": "Chọn Quốc tịch",
  "flight.selectPassportCountry": "Chọn Quốc gia cấp",
  "flight.inboundPrice": "Giá chiều về",
  "flight.nationalityCountry": "Quốc tịch",
  "flight.noSupportBuyBaggage": "Không hỗ trợ mua thêm hành lý",
  "flight.noSupportBuyInsurance": "Không hỗ trợ mua bảo hiểm",
  "flight.passport": "Số hộ chiếu",
  "flight.passportCountry": "Quốc gia cấp",
  "flight.passportEx": "A012345678",
  "flight.passportExpired": "Ngày hết hạn",
  "flight.discountPaymentMethod": "Giảm giá {methodName}",
  "flight.chooseTime": "Chọn thời gian",
  "flight.sameLocation": "Trùng lặp điểm đi và điểm đến",
  "flight.adult": "Người lớn {num}",
  "flight.adultBirthday": "(≥ 12 tuổi)",
  "flight.adultPrice": "Giá vé người lớn",
  "flight.adultTrainBirthday": "Ngày sinh (≥  10 tuổi và < 60 tuổi)",
  "flight.bestTicketPrice": "Vé máy bay giá tốt nhất",
  "flight.bookingNow": "Đặt vé ngay",
  "flight.buyInsurance": "Mua bảo hiểm",
  "flight.buyMoreCheckIn": "Mua thêm hành lý",
  "flight.buyMoreCheckInAd": "Tiết kiệm tiền bằng cách thêm hành lý của bạn ngay bây giờ. Hãng hàng không thường tính phí cao hơn khi mua sau.",
  "flight.changeFlight": "Thay đổi chuyến bay",
  "flight.childBirthday": "(≥24 tháng và <12 tuổi)",
  "flight.childPrice": "Giá vé trẻ em",
  "flight.children": "Trẻ em {num}",
  "flight.chooseDestination": "Chọn điểm đến",
  "flight.chooseOrigin": "Chọn điểm đi",
  "flight.chubbInsurance.price": "{price} đ/Người",
  "flight.contactInfo": "Thông tin liên hệ",
  "flight.contactNote": "Xác nhận tức thì! Mã đặt chỗ sẽ được gửi theo thông tin liên hệ dưới đây.",
  "flight.departure": "Ngày khởi hành",
  "flight.departureDate": "Ngày đi",
  "flight.filter.airline": "Hãng bay",
  "flight.filter.flightTime": "Thời lượng",
  "flight.filter.land": "Hạ cánh",
  "flight.filter.leg": "Chặng bay",
  "flight.filter.numberStop": "Số điểm dừng",
  "flight.filter.numberStop.noStop": "Bay thẳng",
  "flight.filter.numberStop.stop": "{num} điểm dừng",
  "flight.filter.showResult.price": "Giá",
  "flight.filter.sortBy": "Hiển thị giá gồm thuế & phí",
  "flight.filter.sortBy.cheap": "Giá tăng dần",
  "flight.filter.sortBy.default": "Tripi đề xuất",
  "flight.filter.sortBy.expensive": "Giá giảm dần",
  "flight.filter.sortBy.fastest": "Thời gian bay",
  "flight.filter.sortBy.land": "Thời gian hạ cánh",
  "flight.filter.sortBy.takeOff": "Thời gian cất cánh",
  "flight.filter.takeOff": "Cất cánh",
  "flight.filter.transit": "Quá cảnh",
  "flight.flightBookingInfo": "Thông tin khách hàng",
  "flight.flightDetails": "Chi tiết chuyến bay",
  "flight.flightPartner": "Đối tác hàng không",
  "flight.flightResult": "Tìm kiếm",
  "flight.flightReview": "Kiểm tra thông tin",
  "flight.flyDuration": "Thời gian bay",
  "flight.fullName": "Họ và tên",
  "flight.fullNameEx": "Ví dụ: Nguyen Van A",
  "flight.home": "Đặt vé máy bay giá rẻ Vietjet air, Vietnam airlines, Jetstar, Bamboo Airways giảm 20%",
  "flight.imageContent.bestSearchContent": "Chỉ với một cú nhấp chuột, dễ dàng so sánh giá các chuyến bay của Vietnam Airlines, Jetstar, Vietjet, Bamboo Airways và các chặng bay quốc tế khác với 50.000 đường bay ở châu Á Thái Bình Dương và châu Âu với giá tốt nhất.",
  "flight.imageContent.bestSearchHeader": "Kết quả tìm kiếm tốt nhất",
  "flight.imageContent.customerSupportContentNote1": "Nhân viên chăm sóc, tư vấn nhiều kinh nghiệm.",
  "flight.imageContent.customerSupportContentNote2": "Hỗ trợ cả chủ nhật,các ngày lễ tết.",
  "flight.imageContent.customerSupportHeader": "Hỗ trợ khách hàng 24/7",
  "flight.imageContent.easyPaymentContent": "Giao dịch trực tuyến an toàn với nhiều lựa chọn như:",
  "flight.imageContent.easyPaymentContentNote1": "Chuyển khoản ngân hàng",
  "flight.imageContent.easyPaymentContentNote2": "QR PAY",
  "flight.imageContent.easyPaymentContentNote3": "Thẻ tín dụng",
  "flight.imageContent.easyPaymentContentNote4": "Internet Banking",
  "flight.imageContent.easyPaymentHeader": "Thanh toán dễ dàng, đa dạng",
  "flight.inBaggages": "Hành lý chiều về",
  "flight.includeTaxesAndFees": "Giá đã bao gồm thuế, phí & hóa đơn VAT",
  "flight.infant": "Em bé {num}",
  "flight.infantBirthday": "(<24 tháng tuổi)",
  "flight.infantPrice": "Giá vé em bé",
  "flight.inputInfoInstructions": "Nhập tiếng Việt không dấu, không có ký tự đặc biệt. Nhập thông tin trùng khớp với giấy tờ cá nhân.",
  "flight.oneWayPrice": "Giá một chiều",
  "flight.oneWayTicket": "Vé một chiều",
  "flight.outBaggages": "Hành lý chiều đi",
  "flight.outbound": "Chiều đi",
  "flight.outboundPrice": "Giá chiều đi",
  "flight.paymentFixedFeeSide": "Phụ phí thanh toán",
  "flight.pleaseChooseInboundTicket": "Mời bạn chọn vé chiều về",
  "flight.popularDomesticFlightSector": "Các chặng bay nội địa phổ biến",
  "flight.popularDomesticFlightSectorContext": " ",
  "flight.popularInternationalFlightSector": "Các chặng bay quốc tế phổ biến",
  "flight.popularInternationalFlightSectorContext": " ",
  "flight.priceDetails": "Chi tiết giá",
  "flight.providedByInsurance": "Được cung cấp bởi Tổng công ty bảo hiểm",
  "flight.result.bookTicket": "Đặt vé",
  "flight.result.displayMore": "Hiển thị thêm kết quả (Còn {num})",
  "flight.result.filter": "Bộ lọc",
  "flight.result.flightFrom": "Chuyến bay từ {from}",
  "flight.result.flightInfo": "Thông tin chuyến bay",
  "flight.result.longTransitRecheckin": "Thời gian quá cảnh dài. Có thể cần ký gửi lại hành lý",
  "flight.result.partnershipAction": "Bay",
  "flight.result.pleaseChooseOutboundTicket": "Mời bạn chọn vé chiều đi",
  "flight.result.selectTicket": "Chọn vé này",
  "flight.result.sortBy": "Sắp xếp",
  "flight.result.totalPassengers": "{num} khách",
  "flight.result.totalResult": "{num} kết quả",
  "flight.searchRecent": "Tìm kiếm gần đây",
  "flight.seeDetails": "Xem chi tiết",
  "flight.selectYourLocation": "Bạn đang ở",
  "flight.time": "Thời gian",
  "flight.total": "Tổng {text}",
  "flight.totalDay": "Số đêm",
  "flight.totalPay": "Tổng tiền",
  "flight.totalPayable": "Tổng tiền thanh toán",
  "flight.totalRoom": "Số phòng",
  "flight.travelInsurance": "Bảo hiểm du lịch",
  "flight.travellerInfo": "Số khách, hạng ghế",
  "flight.travellerInfo.adult": "Người lớn",
  "flight.travellerInfo.adultCount": "{adultCount} người lớn",
  "flight.travellerInfo.adultDef": "≥ 12 tuổi",
  "flight.travellerInfo.infant": "Em bé",
  "flight.travellerInfo.infantCount": "{infantCount} em bé",
  "flight.travellerInfo.infantDef": "< 24 tháng",
  "flight.travellerInfo.businessClass": "Hạng thương gia",
  "flight.travellerInfo.childCount": "{childCount} trẻ em",
  "flight.travellerInfo.children": "Trẻ em",
  "flight.travellerInfo.childrenDef": "2-11 tuổi",
  "flight.travellerInfo.economyClass": "Hạng phổ thông",
  "flight.travellerInfo.seatClass": "Hạng ghế",
  "flight.travellerInfo.travellers": "Hành khách",
  "flight.travellerInfoCompact": "Số khách",
  "flight.travellersInfo": "Thông tin hành khách",
  "flight.travellersList": "Danh sách hành khách",
  "flight.twoWay": "Khứ hồi",
  "flight.twoWayTicket": "Vé khứ hồi",
  "flight.vatFee": "Thuế và phí",
  "flight.vatFeePerDay": "Thuế và phí mỗi đêm",
  "flight.vatFeePerDayEuropeOnly": "Thuế và phí mỗi đêm",
  "flight.whyBookingOnMyTour": "Vì sao đặt vé máy bay trên Mytour?",
  "flight.yourDestination": "Điểm đến của bạn",
  "flight.payTitle": "Đặt vé máy bay: Thanh toán",
  "flight.pay": "Thanh toán",
  "flight.invoiceInfo": "Thông tin xuất hóa đơn",
  "flight.invoiceNote": "Tôi muốn xuất hóa đơn",
  "flight.taxNumber": "Mã số thuế",
  "flight.taxNumberEx": "Điền mã số thuế",
  "flight.companyName": "Tên đơn vị",
  "flight.companyNameEx": "Điền tên đơn vị",
  "flight.companyAddress": "Địa chỉ đơn vị",
  "flight.companyAddressEx": "Điền địa chỉ đơn vị",
  "flight.recipientAddress": "Địa chỉ người nhận",
  "flight.recipientAddressEx": "Điền địa chỉ người nhân",
  "flight.customerName": "Tên khách hàng",
  "flight.customerNameEx": "Điền tên khách hàng",
  "flight.note": "Ghi chú",
  "flight.conditionInvoice": "Điều kiện xuất hóa đơn:",
  "flight.condition1": "Hạn yêu cầu xuất hóa đơn: Quý khách cần cung cấp thông tin xuất hoá đơn trước hoặc ngay khi xuất vé.",
  "flight.condition2": "Thời gian xuất hóa đơn: từ 5 đến 7 ngày làm việc.",
  "flight.condition3": "Hóa đơn xuất sẽ được gửi về email mà quý khách cung cấp trong mục thông tin xuất hoá đơn.",
  "flight.condition4": "Xuất theo giá trị đơn hàng không bao gồm phí thanh toán, xuất trước giá trị GGCK (nếu có).",
  "flight.condition5": "Quý khách vui lòng kiểm tra kỹ các thông tin xuất hoá đơn đã nhập, trong trường hợp thông tin sai lệch sẽ xuất hoá đơn sau 5 ngày kể từ ngày xác nhận lại.",

  "footer.email": "hotro@tripi.vn",
  "footer.emailCA": "support.tripiconnect@tripi.vn",
  "footer.emailSupport": "Email hỗ trợ",
  "footer.hotline": "Hotline",
  "footer.hotlineNumber": "19002084",
  "footer.hotlineNumberCA": "19004524",
  "footer.license": "©2020 TRIPI. All rights reserved.",

  "header.flight": "Vé máy bay",
  "header.flightBookingSupport": "Hỗ trợ đặt vé máy bay",
  "header.handBook": "Cẩm nang",
  "header.hotel": "Khách sạn1",
  "header.promotion": "Ưu đãi",
  "header.tour": "Tour",

  "hotel.checkIn": "Nhận phòng",
  "hotel.checkOut": "Trả phòng",
  "hotel.distance": "Khoảng cách",
  "hotel.filter.area": "Khu vực",
  "hotel.filter.facility": "Tiện ích nổi bật",
  "hotel.filter.facility.gym": "Phòng thể dục",
  "hotel.filter.facility.indoorPool": "Bể bơi trong nhà",
  "hotel.filter.facility.massage": "Mát xa",
  "hotel.filter.facility.outdoorPool": "Bể bơi ngoài trời",
  "hotel.filter.facility.spa": "Spa",
  "hotel.filter.facility.steamBath": "Xông hơi",
  "hotel.filter.hotelType": "Hình thức",
  "hotel.filter.hotelType.hotel": "Khách sạn",
  "hotel.filter.hotelType.motel": "Nhà trọ",
  "hotel.filter.hotelType.resort": "Resort",
  "hotel.filter.hotelType.villa": "Căn hộ/Villa",
  "hotel.filter.hotelType.yacht": "Du thuyền",
  "hotel.filter.roomPrice": "Giá phòng",
  "hotel.filter.selectResult": "Chọn lọc kết quả theo",
  "hotel.filter.starRate": "Hạng sao",
  "hotel.filter.starRate.fiveStar": "Năm sao",
  "hotel.filter.starRate.fourStar": "Bốn sao",
  "hotel.filter.starRate.oneStar": "Một sao",
  "hotel.filter.starRate.threeStar": "Ba sao",
  "hotel.filter.starRate.twoStar": "Hai sao",
  "hotel.filter.viewMap": "Xem bản đồ",
  "hotel.guestInfo.adult": "Người lớn",
  "hotel.guestInfo.adultCount": "{adultCount} người lớn",
  "hotel.guestInfo.adultDef": "> 12 tuổi",
  "hotel.guestInfo.childCount": "{childCount} trẻ em",
  "hotel.guestInfo.children": "Trẻ em",
  "hotel.guestInfo.childrenDef": "≤ 12 tuổi",
  "hotel.guestInfo.childrenValid": "Chưa xác nhận tuổi của của em bé",
  "hotel.guestInfo.room": "Số lượng phòng",
  "hotel.guestInfo.roomCount": "{roomCount} phòng",
  "hotel.popularDestinations": "Điểm đến nổi bật",
  "hotel.result.filter.bookingHotelInfo": "Thông tin đặt phòng",
  "hotel.result.includeVAT": "Giá hiển thị là giá cuối cùng! Giá đã bao gồm thuế, phí và hóa đơn VAT",
  "hotel.result.info.bookRoom": "Chọn phòng",
  "hotel.result.info.cleanlinessScore": "Vệ sinh",
  "hotel.result.info.describe": "Miêu tả",
  "hotel.result.info.distance": "{num} km",
  "hotel.result.info.distanceToAirport": "Khoảng cách tới sân bay",
  "hotel.result.info.facility": "Tiện nghi khách sạn",
  "hotel.result.info.feature": "Tiện nghi phòng",
  "hotel.result.info.introduce": "Giới thiệu",
  "hotel.result.info.locationScore": "Vị trí",
  "hotel.result.info.mealScore": "Bữa ăn",
  "hotel.result.info.overallScore": "Đánh giá chung",
  "hotel.result.info.priceNote": "/ 1 phòng/ 1 đêm",
  "hotel.result.info.ratingExcellent": "Xuất sắc",
  "hotel.result.info.ratingGood": "Tốt",
  "hotel.result.info.ratingNormal": "Trung Bình",
  "hotel.result.info.ratingNote": "Kết quả dựa trên {num} đánh giá",
  "hotel.result.info.ratingSatisfied": "Hài Lòng",
  "hotel.result.info.ratingSmallNote": "{num} nhận xét",
  "hotel.result.info.ratingVeryGood": "Rất Tốt",
  "hotel.result.info.review": "Đánh giá",
  "hotel.result.info.roomInfo": "Thông tin phòng",
  "hotel.result.info.roomList": "Danh sách phòng",
  "hotel.result.info.roomScore": "Phòng",
  "hotel.result.info.serviceScore": "Dịch vụ",
  "hotel.result.info.sleepQualityScore": "Nghỉ ngơi",
  "hotel.result.info.useful": "Thông tin hữu ích",
  "hotel.result.info.warning": "Yêu cầu về loại giường trên có thể không được đảm bảo. Quý khách vui lòng liên hệ Tripi để xác nhận.",
  "hotel.result.list.bonusPoint": "{num} điểm",
  "hotel.result.list.book": "Chọn",
  "hotel.result.list.bookNow": "Đặt ngay",
  "hotel.result.list.bookRoom": "Chọn phòng",
  "hotel.result.list.cancel": "Điều khoản hủy phòng",
  "hotel.result.list.checkRefund": "Xem điều kiện hoàn hủy",
  "hotel.result.list.freeBreakfast": "Miễn phí bữa sáng",
  "hotel.result.list.freeWifi": "Miễn phí Wifi",
  "hotel.result.list.maxGuest": "Tối đa {num} người",
  "hotel.result.list.noCheckinGuidance": "Không có hướng dẫn check in",
  "hotel.result.list.noRefund": "Không hoàn hủy",
  "hotel.result.list.oneNight": "/ 1 đêm",
  "hotel.result.list.perNight": "mỗi đêm",
  "hotel.result.list.refund": "Miễn phí hoàn hủy",
  "hotel.result.list.title": "Danh sách phòng",
  "hotel.result.noResult": "Không có kết quả phù hợp",
  "hotel.result.noRoom": "Khách sạn này không còn phòng trống",
  "hotel.result.review": "đánh giá",
  "hotel.result.reviews": "{num} Nhận xét",
  "hotel.result.searchWithOtherFilter": "Bạn có thể tìm kiếm với các tiêu chí lọc khác",
  "hotel.result.seeReview": "Xem hết nhận xét",
  "hotel.result.showLocation": "Good location - show on map",
  "hotel.result.showPrice": "Xem giá",
  "hotel.result.usePoint": "Dùng {point} điểm {text}",
  "hotel.result.usePointDiscountPercent": "để nhận giảm giá",
  "hotel.result.useful": "{num} {note}",
  "hotel.result.useful.buildYear": "Năm khách sạn xây dựng",
  "hotel.result.useful.distanceToAirport": "Khoảng cách tới sân bay",
  "hotel.result.useful.distanceToCityCenter": "Khoảng cách tới trung tâm",
  "hotel.result.useful.distanceToDistrictCenter": "Khoảng cách tới trung tâm thị trấn",
  "hotel.result.useful.numBars": "Số quán Bar",
  "hotel.result.useful.numFloors": "Số tầng khách sạn",
  "hotel.result.useful.numRestaurants": "Số nhà hàng ",
  "hotel.result.useful.numRooms": "Số phòng khách sạn",
  "hotel.result.useful.title": "Thông tin hữu ích",

  "pay": "Thanh toán",
  "pay.agreeWithTerms": "Đồng ý với các {link}",
  "pay.discountCode": "Mã giảm giá",
  "pay.discountCodeExample": "Ex: CODEDISCOUNT 10%",
  "pay.discountCodeNotAcceptPaymentMethodHolding": "Mã giảm giá không được áp dụng khi dùng phương thức giữ chỗ",
  "pay.enterDiscountCode": "Nhập mã giảm giá của bạn",
  "pay.paymentFixedFee": "(Thu thêm phụ phí: {value}đ)",
  "pay.holdingTitle": "",
  "pay.paymentMessage.atm": "Bạn đang tiến hành thanh toán trên Thẻ ATM nội địa với số tiền {currency}.",
  "pay.paymentMessage.cd": "Bạn đang tiến hành thanh toán bằng Trip Credit với số tiền {currency}.",
  "pay.paymentMessage.pl": "Bạn đang tiến hành giữ chỗ cho đơn hàng với số tiền {currency}.",
  "pay.paymentMessage.qr": "Bạn đang tiến hành thanh toán QR PAY với số tiền {currency}.",
  "pay.paymentMessage.vm": "Bạn đang tiến hành thanh toán trên Thẻ Visa, Master Card với số tiền {currency}.",
  "pay.paymentMethod": "Hình thức thanh toán",
  "pay.promotion.apply": "Dùng ngay",
  "pay.promotion.cancel": "Hủy mã giảm giá",
  "pay.promotion.cancelTablet": "Hủy mã",
  "pay.promotion.expired": "Hạn dùng",
  "pay.promotion.myPromotion": "Ưu đãi của tôi",
  "pay.promotion.noResult": "Không tìm thấy mã khuyến mại",
  "pay.promotion.promotionDescription": "Bạn có thể nhập mã hoặc lựa chọn từ danh sách bên dưới",
  "pay.promotion.remainNumber": "Số lượng",
  "pay.promotion.return": "Trở lại",
  "pay.promotion.selectAnotherCode": "Chọn mã khác",
  "pay.promotion.selectCode": "Chọn mã giảm giá",
  "pay.promotion.selectPromotionCode": "Chọn 1 mã giảm giá",
  "pay.promotion.whatYourPromotionCode": "Mã khuyến mãi của bạn là gì?",
  "pay.OTPDescription": "Nhập mã để tiếp tục quá trình thanh toán",
  "pay.accountBalance": "Số dư tài khoản",
  "pay.changeCode": "Thay đổi mã",
  "pay.conditions": "Điều khoản của Tripi",
  "pay.confirmToContinue": "Hãy xác nhận để tiếp tục thanh toán",
  "pay.enterSmartOTP": "Nhập Smart OTP",
  "pay.holdingNotice": "Mã giảm giá không được áp dụng với phương thức thanh toán giữ chỗ. Bạn có muốn tiếp tục thanh toán không?",
  "pay.payWithTripCredits": "Thanh toán bằng điểm",
  "pay.paymentFixedDiscount": "(Giảm giá: {value}đ trên tổng đơn hàng)",
  "pay.remainningPoints": "Số điểm còn lại",
  "pay.seeGiftList": "Xem danh sách quà tặng",
  "pay.seePaymentDetail": "Xem hướng dẫn thanh toán chi tiết",
  "pay.tripiPointDescription": "Bạn có thể sử dụng điểm để thanh toán một phần hoặc toàn bộ giá trị đơn hàng bằng cách lựa chọn số điểm sử dụng. Thanh toán bằng điểm vẫn được cộng điểm cho đơn hàng khi thanh toán. Sử dụng điểm này không ảnh hưởng đến tiến độ tăng hạng của bạn.",
  "pay.usePoints": "Sử dụng",
  "pay.youNeedCreateSmartOTP": "Bạn cần tạo mã Smart OTP để xác thực các giao dịch trực tuyến.",

  "payment.OTPDescription": "Nhập mã để tiếp tục quá trình thanh toán",
  "payment.activateDate": "Ngày hiệu lực",
  "payment.adult.F": "Bà (Chị),",
  "payment.adult.M": "Ông (Anh),",
  "payment.adultPrice": "Giá vé người lớn",
  "payment.arrival": "Đến",
  "payment.babyPrice": "Giá vé em bé",
  "payment.baggages": "Mua thêm hành lý",
  "payment.baggagesInfo": "Thông tin thay đổi hành lý",
  "payment.bookingDate": "Ngày tạo đơn hàng",
  "payment.bookingHotelDetail": "Chi tiết đặt khách sạn",
  "payment.buyMoreBaggages.fail": "Mua thêm hành lý thất bại",
  "payment.buyMoreBaggages.success": "Mua thêm hành lý thành công",
  "payment.cancelPolicy": "Điều kiện hủy",
  "payment.changeBaggages.fail": "Thay đổi hành lý thất bại",
  "payment.changeBaggages.success": "Thay đổi hành lý thành công",
  "payment.changeCode": "Thay đổi mã",
  "payment.childPrice": "Giá vé trẻ em",
  "payment.children.F": "Trẻ em gái,",
  "payment.children.M": "Trẻ em trai,",
  "payment.contactInfo": "Thông tin liên hệ",
  "payment.deactivateDate": "Ngày kết thúc",
  "payment.departure": "Khởi hành",
  "payment.detail": "Chi tiết",
  "payment.detailInfo": "Thông tin chi tiết",
  "payment.enterSmartOTP": "Nhập Smart OTP",
  "payment.finalPrice": "Giá cuối cùng",
  "payment.flight": "Chuyến bay",
  "payment.flightBookingDetail": "Chi tiết đặt vé máy bay",
  "payment.flightBookingInfo": "Thông tin khách hàng",
  "payment.flightInfo": "Thông tin chuyến bay",
  "payment.flightTicketInfo": "Thông tin {text}",
  "payment.freeBreakfast": "Bao gồm bữa sáng",
  "payment.guest": "Hành khách",
  "payment.hotelName": "Tên khách sạn",
  "payment.infant.F": "Em bé gái, ",
  "payment.infant.M": "Em bé trai, ",
  "payment.insurance": "Bảo hiểm du lịch",
  "payment.insuranceInfo": "Thông tin bảo hiểm",
  "payment.noBaggages": "Không mua hành lý",
  "payment.orderCode": "Mã đơn hàng",
  "payment.packageName": "Tên gói",
  "payment.passenger": "Chuyến bay",
  "payment.payMore": "Thanh toán thêm",
  "payment.paymentInfo": "Thông tin thanh toán",
  "payment.paymentMethodFee": "Phụ phí thanh toán",
  "payment.personPayment": "Người thanh toán",
  "payment.prnCode": "Mã đặt chỗ",
  "payment.promotion": "Giảm giá",
  "payment.totalPrice": "Tổng giá",
  "payment.totalTraveller": "Tổng số",
  "payment.tripiReadyServeYou": "{chanel} luôn sẵn sàng phục vụ Quý khách",
  "payment.tripiSupportText": "Vui lòng Chat với {chanel} (miễn phí) hoặc gọi {phone} để được hỗ trợ.",

  "result.changeValue": "Thay đổi giá trị",
  "result.found": "Tìm thấy {num} kết quả",
  "result.header.adult": "{num} người lớn",
  "result.header.child": "{num} trẻ em",
  "result.header.night": "{num} đêm",
  "result.header.room": "{num} phòng",
  "result.holdingTime": "Thời gian giữ vé: {num}h",
  "result.hotelInfo": "Thông tin khách sạn",
  "result.map": "Bản đồ",
  "result.needVisa": "Bạn có thể cần visa",
  "result.pickTicketInBound": "Chọn vé chiều về",
  "result.pickTicketOutBound": "Chọn vé chiều đi",
  "result.roundTripPrice": "Giá khứ hồi",
  "terms.title": "Điều khoản và điều kiện",

  "order": "Quản lý đơn hàng",
  "order.noData": "Không có kết quả phù hợp!",
  "order.displayMore": "Hiển thị thêm kết quả (Còn {num})",
  "order.flight": "Đơn vé máy bay",
  "order.flight.detail": "Chi tiết đơn hàng",
  "order.flight.addMoreCheckIn": "Mua thêm hành lý",
  "order.flight.baggage.pay": "Thanh toán mua thêm hành lý",
  "order.flight.holding.pay": "Thanh toán vé máy bay",
  "order.filter": "Lọc đơn hàng",
  "order.filter.status": "Trạng thái đơn hàng",
  "order.filter.all": "Tất cả",
  "order.filter.holding": "Đang giữ",
  "order.filter.success": "Thành công",
  "order.filter.bookingCode": "Mã đặt chỗ",
  "order.filter.bookingCodeEx": "Nhập mã đặt chỗ",
  "order.filter.bookingId": "Mã đơn hàng",
  "order.filter.bookingIdEx": "Nhập mã đơn hàng",
  "order.filter.bookerContactId": "Khách hàng",
  "order.filter.bookerContactIdEx": "Chọn khách hàng",
  "order.filter.departureDate": "Khoảng ngày khởi hành",
  "order.filter.departureDateEx": "Chọn khoảng ngày khởi hành",
  "order.filter.createDate": "Khoảng ngày đặt",
  "order.filter.createDateEx": "Chọn khoảng ngày đặt",
  "order.filter.": "",
  "order.status": "Trạng thái",
  "order.bookingId": "Mã đơn hàng",
  "order.bookingCode": "Mã đặt chỗ",
  "order.outboundCode": "Mã đặt chỗ chiều đi",
  "order.inboundCode": "Mã đặt chỗ chiều về",
  "order.customer": "Khách hàng",
  "order.bookingDate": "Ngày đặt",
  "order.passengerCount": "Số khách",
  "order.viewDetail": "Xem chi tiết",
  "order.totalPayable": "Tổng tiền thanh toán",
  "order.paymentExpired": "Hết hạn thanh toán",
  "order.paymentExpiredTime": "Thời hạn thanh toán",
  "order.separateFromOrder": "Tách từ đơn hàng",
  "order.orderInfo": "Thông tin đơn hàng",
  "order.contactInfo": "Thông tin liên hệ",
  "order.guestList": "Danh sách hành khách",
  "order.travelInsurance": "Bảo hiểm du lịch",
  "order.insurancePackage": "Gói bảo hiểm",
  "order.start": "Bắt đầu",
  "order.end": "Kết thúc",
  "order.unitPrice": "Đơn giá",
  "order.unitPricePerPerson": "{num} đ/Người",
  "order.numPassenger": "Số người",
  "order.finalPrice": "Thành tiền",
  "order.paymentDetail": "Chi tiết thanh toán",
  "order.discountCode": "Mã giảm giá",
  "order.paymentMethod": "Phương thức thanh toán",
  "order.paymentFixedFeeSide": "Phụ phí thanh toán",
  "order.paymentFixedDiscountSide": "Giảm giá thanh toán",
  "order.paymentPrice": "Tiền cần thanh toán",
  "order.pointBonus": "Điểm nhận được",
  "order.paymentStatus": "Trạng thái thanh toán",
  "order.transferMoneyMethod": "Phương thức chuyển tiền",
  "order.pointPayment": "Thanh toán bằng điểm",
  "order.inBaggages": "Hành lý chiều về",
  "order.outBaggages": "Hành lý chiều đi",
  "order.noSupportBuyBaggage": "Không hỗ trợ mua thêm hành lý",
  "order.noSupportBuyInsurance": "Không hỗ trợ mua bảo hiểm",
  "order.passport": "Số hộ chiếu",
  "order.nationalityCountry": "Quốc tịch",
  "order.passportCountry": "Quốc gia cấp",
  "order.passportExpired": "Ngày hết hạn",
  "order.outboundTicketNumber": "Số vé chiều đi",
  "order.inboundTicketNumber": "Số vé chiều về",
  "order.travellersList": "Danh sách hành khách",
  "order.outbound": "Chiều đi",
  "order.inbound": "Chiều về",
  "order.baggage": "Thêm hành lý",
  "order.notSupportBuyBaggage": "Không hỗ trợ mua thêm hành lý {text}",
  "order.buyMore": "Mua thêm",
  "order.bought": "Đã mua {text}",
  "order.totalCost": "Tổng chi phí",
  "order.totalPay": "Chi phí thanh toán",
  "order.vat": "Thuế VAT",
  "order.baggagePay": "Thanh toán mua thêm hành lý",
  "order.invoiceInfo": "Thông tin xuất hóa đơn",
  "order.taxNumber": "Mã số thuế",
  "order.companyName": "Tên đơn vị",
  "order.companyNameEx": "Điền tên đơn vị",
  "order.companyAddress": "Địa chỉ đơn vị",
  "order.companyAddressEx": "Điền địa chỉ đơn vị",
  "order.recipientAddress": "Địa chỉ người nhận",
  "order.recipientAddressEx": "Điền địa chỉ người nhân",
  "order.note": "Ghi chú",
  "order.invoice": "Hóa đơn",
  "order.invoice.list": "Danh sách hóa đơn",
  "order.invoice.outbound": "Hóa đơn chiều đi",
  "order.invoice.outbound.title": "HDCD{num}.pdf",
  "order.invoice.inbound": "Hóa đơn chiều về",
  "order.invoice.inbound.title": "HDCV{num}.pdf",
  "order.addPromotionCode": "Áp dụng thành công mã giảm giá",
  "order.discountPaymentMethod": "Giảm giá {methodName}",
  "order.noBookingCode": "Chưa có mã",
  "order.": "",
  "order.": "",

  "z": ""
}
